[
    {"id": "11", "name": "Saka", "national": "England","position":"Midfielder", "number":"No.7" , "price":"70M"},
    {"id": "12", "name": "Tierney", "national": "Scotland","position":"Defender","number":"No.3","price":"30M"}
]